{
  "name": "climapp",
  "version": "0.1.0",
  "private": true,
  "dependencies": {
    "@material-ui/core": "^4.2.1",
    "balanced-match": "^1.0.0",
    "convert-units": "^2.3.4",
    "prop-types": "^15.7.2",
    "react": "^16.8.6",
    "react-dom": "^16.8.6",
    "react-flexbox-grid": "^2.1.2",
    "react-scripts": "3.0.1",
    "react-weathericons": "^1.0.4"
  },
  "scripts": {
    "start": "react-scripts start",
    "build": "react-scripts build",
    "test": "react-scripts test",
    "eject": "react-scripts eject"
  },
  "eslintConfig": {
    "extends": "react-app"
  },
  "browserslist": {
    "production": [
      ">0.2%",
      "not dead",
      "not op_mini all"
    ],
    "development": [
      "last 1 chrome version",
      "last 1 firefox version",
      "last 1 safari version"
    ]
  }
}
